%
M48
M72
T01C0.0118
T02C0.0320
T03C0.1260
%
T01
X12472Y6597
X9472Y8347
X9472Y8722
X11097Y8597
X11472Y8597
X10972Y9972
X10972Y10347
X8847Y10472
X8472Y10472
X7972Y12097
X13097Y11597
X6972Y7472
X25597Y12097
X28597Y10472
X28597Y10097
X27222Y9972
X26847Y9972
X27972Y8972
X27972Y8597
X29347Y9097
X29722Y9097
X26222Y7472
X30972Y6597
X40597Y3847
X40972Y3847
X42722Y6597
X43222Y7472
X41972Y9472
X41597Y9472
X38472Y11597
X38472Y12472
X43597Y12097
X49597Y12097
X52597Y10472
X52597Y10097
X51972Y9972
X51597Y9972
X51972Y8972
X51972Y8597
X53847Y8847
X54222Y8847
X50722Y7472
X55222Y6597
X55847Y11597
X60847Y16097
X61097Y15847
X57597Y17097
X57347Y17347
X51472Y19347
X54222Y20347
X54597Y20347
X54097Y21347
X54097Y21722
X55347Y22222
X52597Y21097
X52222Y21097
X51847Y22597
X43847Y23222
X43472Y23097
X43097Y23347
X42722Y22972
X42347Y23222
X41972Y23597
X41597Y23347
X41222Y23722
X39472Y24847
X41222Y25847
X39222Y26472
X36097Y27222
X36222Y28347
X35722Y26222
X36097Y25222
X30972Y22222
X29597Y21847
X28097Y21722
X27722Y21722
X29597Y21472
X29972Y20597
X30347Y20597
X26847Y19347
X32847Y17722
X32847Y17347
X33972Y16097
X34347Y16097
X38222Y16597
X35722Y18472
X41472Y18847
X43472Y20347
X41972Y21347
X41597Y21722
X47597Y25972
X47597Y26347
X47972Y26347
X47972Y25972
X57222Y29347
X57472Y29097
X55097Y30097
X58847Y27722
X58847Y27347
X59597Y26222
X62722Y27597
X65972Y26597
X65972Y26222
X65972Y25847
X70222Y22597
X72722Y22222
X72722Y21847
X73972Y22722
X71097Y21222
X70722Y21222
X73097Y20597
X73472Y20597
X69722Y19347
X75597Y17347
X75847Y17097
X77472Y15972
X77847Y15972
X68972Y12097
X72097Y10222
X72097Y9847
X72222Y9347
X72597Y9347
X70597Y8722
X70597Y8347
X68847Y7472
X73847Y6847
X70222Y9847
X69847Y9847
X73472Y11597
X30347Y11597
X16097Y15972
X15722Y15972
X14722Y17097
X14472Y17347
X8472Y19347
X12097Y20597
X12472Y20597
X11347Y21847
X11347Y22222
X12972Y22472
X9472Y21597
X9097Y21597
X9097Y22972
X19847Y26222
X21097Y25972
X19847Y26597
X24097Y26972
X24097Y27347
X27347Y22597
T02
X33167Y30143
X34167Y30143
X35167Y30143
X36167Y30143
X37167Y30143
X38167Y30143
X39167Y30143
X40167Y30143
X41167Y30143
X42167Y30143
X43167Y30143
X44167Y30143
X45167Y30143
X46167Y30143
X47167Y30143
X48167Y30143
X49167Y30143
T03
X1797Y29356
X23056Y29356
X59277Y29356
X80537Y29356
X59277Y15182
X80537Y1797
X23056Y15182
X1797Y1797
M30
